{
    "description": "Brave Ape Yacht Club is a collection of 10000 unique brave ape NFTs",
    "external_url": "http://braveapeyachtclub.com/",
    "image": "https://ipfs.braveapeyachtclub.com/1024/4/4353.png",
    "name": "Brave Ape Yacht Club #4353",
    "attributes": [
        {
            "trait_type": "Habitat",
            "value": "jungle",
            "display_type": null,
            "max_value": null,
            "trait_count": null,
            "order": null
        },
        {
            "trait_type": "DNA",
            "value": "Elf",
            "display_type": null,
            "max_value": null,
            "trait_count": null,
            "order": null
        },
        {
            "trait_type": "Wisdom_value",
            "value": "6%",
            "display_type": null,
            "max_value": null,
            "trait_count": null,
            "order": null
        },
        {
            "trait_type": "characteristic",
            "value": "legend",
            "display_type": null,
            "max_value": null,
            "trait_count": null,
            "order": null
        }
    ]
}