{
    "description": "Brave Ape Yacht Club is a collection of 10000 unique brave ape NFTs",
    "external_url": "http://braveapeyachtclub.com/",
    "image": "https://ipfs.braveapeyachtclub.com/1024/1/1878.png",
    "name": "Brave Ape Yacht Club #1878",
    "attributes": [
        {
            "trait_type": "Habitat",
            "value": "volcano",
            "display_type": null,
            "max_value": null,
            "trait_count": null,
            "order": null
        },
        {
            "trait_type": "DNA",
            "value": "Orc",
            "display_type": null,
            "max_value": null,
            "trait_count": null,
            "order": null
        },
        {
            "trait_type": "Wisdom_value",
            "value": "9%",
            "display_type": null,
            "max_value": null,
            "trait_count": null,
            "order": null
        },
        {
            "trait_type": "characteristic",
            "value": "excellent",
            "display_type": null,
            "max_value": null,
            "trait_count": null,
            "order": null
        }
    ]
}